<svg width="24" height="22" viewBox="0 0 24 22" fill="none" xmlns="http://www.w3.org/2000/svg">
<path d="M10.9393 21.5607C11.5251 22.1464 12.4749 22.1464 13.0607 21.5607L22.6066 12.0147C23.1924 11.4289 23.1924 10.4792 22.6066 9.8934C22.0208 9.30761 21.0711 9.30761 20.4853 9.8934L12 18.3787L3.51472 9.8934C2.92893 9.30761 1.97919 9.30761 1.3934 9.8934C0.807612 10.4792 0.807612 11.4289 1.3934 12.0147L10.9393 21.5607ZM10.5 0.5L10.5 20.5L13.5 20.5L13.5 0.5L10.5 0.5Z" fill="#ffffff"/>
</svg>
