<svg width="40" height="40" viewBox="0 0 40 40" fill="none" xmlns="http://www.w3.org/2000/svg">
<path fill-rule="evenodd" clip-rule="evenodd" d="M34.8732 0H5.12683C2.30983 0 0 2.31008 0 5.12675V34.8732C0 37.6898 2.30983 40 5.12683 40H34.8731C37.6904 40 40 37.6898 40 34.8733V5.12675C40 2.31008 37.6904 0 34.8732 0ZM13.75 19.3177V31.6667H8.33333V20.239V16.0833H13.75V19.3177ZM11.0308 13.7607C9.52392 13.7607 8.30117 12.5388 8.30117 11.031C8.30117 9.52292 9.52392 8.30258 11.0308 8.30258C12.5398 8.30258 13.7614 9.523 13.7614 11.031C13.7614 12.5388 12.5399 13.7607 11.0308 13.7607ZM31.6667 23.1667V31.6667H27V24.0972C27 22.2847 26.8038 19.9536 24.3197 19.9536C21.7978 19.9536 21.4167 21.9268 21.4167 23.9666V31.6667H16.9167V19.0933V16.0833H21.25V18.1667H21.2962C21.9425 17 23.5259 16.0817 25.8838 16.0817C29.8564 16.0817 31.2064 17.9602 31.5758 20.8993C31.6635 21.5891 31.6973 22.3333 31.6973 23.1667H31.6667Z" fill="#1A1A1A"/>
</svg>
